Minería de datos: PRA1 - Selección y preparación de un juego de datos
…
El gráfico superior nos muestra una visión rápida de las características del dataset. Posteriormente trataremos los valores nulos.

Vamos a revisar las primera líneas del dataset.

retail.tb

## # A tibble: 1,592,832 x 9
##    Invoice StockCode Description              Quantity InvoiceDate         Price
##    <chr>   <chr>     <chr>                       <dbl> <dttm>              <dbl>
##  1 489434  85048     "15CM CHRISTMAS GLASS B~       12 2009-12-01 07:45:00  6.95
##  2 489434  79323P    "PINK CHERRY LIGHTS"           12 2009-12-01 07:45:00  6.75
##  3 489434  79323W    "WHITE CHERRY LIGHTS"          12 2009-12-01 07:45:00  6.75
##  4 489434  22041     "RECORD FRAME 7\" SINGL~       48 2009-12-01 07:45:00  2.1 
##  5 489434  21232     "STRAWBERRY CERAMIC TRI~       24 2009-12-01 07:45:00  1.25
##  6 489434  22064     "PINK DOUGHNUT TRINKET ~       24 2009-12-01 07:45:00  1.65
##  7 489434  21871     "SAVE THE PLANET MUG"          24 2009-12-01 07:45:00  1.25
##  8 489434  21523     "FANCY FONT HOME SWEET ~       10 2009-12-01 07:45:00  5.95
##  9 489435  22350     "CAT BOWL"                     12 2009-12-01 07:46:00  2.55
## 10 489435  22349     "DOG BOWL , CHASING BAL~       12 2009-12-01 07:46:00  3.75
## # ... with 1,592,822 more rows, and 3 more variables: Customer ID <dbl>,
## #   Country <chr>, sheet_name <chr>
…
sapply(retail.tb, function(x) sum(is.na(x)))

##     Invoice   StockCode Description    Quantity InvoiceDate       Price 
##           0           0           0           0           0           0 
##     Country  sheet_name  CustomerID        Date        Year       Month 
##           0           0           0           0           0           0 
##   YearMonth        Sale 
##           0           0

Una vez finalizada la fase de limpieza de los datos, mostramos el dataset resultante

retail.tb

## # A tibble: 1,592,832 x 14
##    Invoice StockCode Description     Quantity InvoiceDate         Price Country 
##    <chr>   <chr>     <chr>              <dbl> <dttm>              <dbl> <fct>   
##  1 489434  85048     "15CM CHRISTMA~       12 2009-12-01 07:45:00  6.95 United ~
##  2 489434  79323P    "PINK CHERRY L~       12 2009-12-01 07:45:00  6.75 United ~
##  3 489434  79323W    "WHITE CHERRY ~       12 2009-12-01 07:45:00  6.75 United ~
##  4 489434  22041     "RECORD FRAME ~       48 2009-12-01 07:45:00  2.1  United ~
##  5 489434  21232     "STRAWBERRY CE~       24 2009-12-01 07:45:00  1.25 United ~
##  6 489434  22064     "PINK DOUGHNUT~       24 2009-12-01 07:45:00  1.65 United ~
##  7 489434  21871     "SAVE THE PLAN~       24 2009-12-01 07:45:00  1.25 United ~
##  8 489434  21523     "FANCY FONT HO~       10 2009-12-01 07:45:00  5.95 United ~
##  9 489435  22350     "CAT BOWL"            12 2009-12-01 07:46:00  2.55 United ~
## 10 489435  22349     "DOG BOWL , CH~       12 2009-12-01 07:46:00  3.75 United ~
## # ... with 1,592,822 more rows, and 7 more variables: sheet_name <chr>,
## #   CustomerID <dbl>, Date <date>, Year <dbl>, Month <dbl>, YearMonth <chr>,
## #   Sale <dbl>
…
3.4 Agregación de los datos

Debido a que el número de registros es elevado, vamos a disminuir la granularidad del dataset agrupando los datos por año y mes

retail.tb.SalesByContryAndYearMonth <- retail.tb %>% 
  select(YearMonth, Year, Month, Country, Sale)  %>% 
  group_by(YearMonth, Year, Month, Country) %>% 
  summarise(Sale = sum(Sale)) 

## `summarise()` has grouped output by 'YearMonth', 'Year', 'Month'. You can override using the `.groups` argument.

retail.tb.SalesByContryAndYearMonth

## # A tibble: 594 x 5
## # Groups:   YearMonth, Year, Month [25]
##    YearMonth  Year Month Country           Sale
##    <chr>     <dbl> <dbl> <fct>            <dbl>
##  1 200912     2009    12 Australia         100.
##  2 200912     2009    12 Austria          3997.
##  3 200912     2009    12 Belgium           895.
##  4 200912     2009    12 Channel Islands  1891.
##  5 200912     2009    12 Cyprus           6850.
##  6 200912     2009    12 Denmark          2769.
##  7 200912     2009    12 EIRE            38256.
##  8 200912     2009    12 Finland          1098.
##  9 200912     2009    12 France          11110.
## 10 200912     2009    12 Germany         19565.
## # ... with 584 more rows
…
